Project 1: Wrangling, Exploration, Visualization
…
## # A tibble: 4 x 4
##   obese_hilo stat  Workout deathrate
##   <chr>      <chr>   <dbl>     <dbl>
## 1 high       fn1     30.3      142. 
## 2 high       fn2      3.17      10.0
## 3 low        fn1     34.4      158. 
## 4 low        fn2      3.36      12.6

The above is to demonstrate tidying abilities from the tidying section! I pulled the mean and standard deviation from the variables workout and death rate, grouped by whether there is a high obesity rate or not within each state. Unsurprisingly, the workout rate is higher in the states that have a lower obesity rate (an obesity rate that is lower than the average across all states). However, the death rate is higher in those states that have a higher workout rate. There could be many other variables in play, such as access to health care and other lifestyle variables, as well as environment.

alljoined %>% filter(workout_hilo == "low") %>% arrange(desc(deaths))

## # A tibble: 25 x 7
##    State Workout Obese deathrate deaths obese_hilo workout_hilo
##    <chr>   <dbl> <dbl>     <dbl>  <dbl> <chr>      <chr>       
##  1 CA       26.2  22.6      132.  59512 high       low         
##  2 FL       27    27        139.  45583 high       low         
##  3 NY       27.1  24.1      133.  33655 high       low         
##  4 IL       31.6  23.4      152.  23902 high       low         
##  5 NJ       30.7  20.3      136.  15698 low        low         
##  6 VA       31.9  22.7      145.  15045 high       low         
##  7 WA       28.3  25.9      143.  12960 high       low         
##  8 MA       25.2  22.2      140.  12582 low        low         
##  9 AZ       31.4  25.5      131.  12503 high       low         
## 10 MN       30.1  25.5      142.  10042 high       low         
## #  with 15 more rows
…
